[
  {
    "mode": "NULLABLE",
    "name": "line_item_id",
    "type": "INTEGER"
  },
  {
    "mode": "NULLABLE",
    "name": "order_id",
    "type": "INTEGER"
  },
  {
    "mode": "NULLABLE",
    "name": "item_id",
    "type": "INTEGER"
  },
  {
    "mode": "NULLABLE",
    "name": "transaction_type",
    "type": "STRING"
  },
  {
    "mode": "NULLABLE",
    "name": "quantity",
    "type": "INTEGER"
  },
  {
    "mode": "NULLABLE",
    "name": "item_price_each",
    "type": "FLOAT"
  },
  {
    "mode": "NULLABLE",
    "name": "item_tax_each",
    "type": "FLOAT"
  },
  {
    "mode": "NULLABLE",
    "name": "markdown_each",
    "type": "FLOAT"
  },
  {
    "mode": "NULLABLE",
    "name": "freight_each",
    "type": "FLOAT"
  },
  {
    "mode": "NULLABLE",
    "name": "duty_each",
    "type": "FLOAT"
  },
  {
    "mode": "NULLABLE",
    "name": "gift_wrap_flag",
    "type": "BOOLEAN"
  },
  {
    "mode": "NULLABLE",
    "name": "item_status",
    "type": "STRING"
  },
  {
    "mode": "NULLABLE",
    "name": "item_status_as_of_date",
    "type": "STRING"
  },
  {
    "mode": "NULLABLE",
    "name": "ship_date",
    "type": "STRING"
  },
  {
    "mode": "NULLABLE",
    "name": "promotion_code",
    "type": "STRING"
  },
  {
    "mode": "NULLABLE",
    "name": "gift_message",
    "type": "STRING"
  },
  {
    "mode": "NULLABLE",
    "name": "gift_registry_number",
    "type": "STRING"
  },
  {
    "mode": "NULLABLE",
    "name": "created_timestamp",
    "type": "TIMESTAMP"
  },
  {
    "mode": "NULLABLE",
    "name": "updated_timestamp",
    "type": "TIMESTAMP"
  }
]